spring24/blg222/hw1/hw1/hw1.sim/sim_1/behav/xsim/simulate.log
Vivado Simulator 2017.4
Time resolution is 1 ps
------------------------------------
ArithmeticLogicUnitSystem Simulation Started
[PASS] Test No: 1, Component: OutA, Actual Value: 0x7777, Expected Value: 0x7777
[PASS] Test No: 1, Component: OutB, Actual Value: 0x8887, Expected Value: 0x8887
[PASS] Test No: 1, Component: ALUOut, Actual Value: 0xfffe, Expected Value: 0xfffe
[PASS] Test No: 1, Component: Z, Actual Value: 0x0000, Expected Value: 0x0000
[PASS] Test No: 1, Component: C, Actual Value: 0x0000, Expected Value: 0x0000
[PASS] Test No: 1, Component: N, Actual Value: 0x0000, Expected Value: 0x0000
[PASS] Test No: 1, Component: O, Actual Value: 0x0000, Expected Value: 0x0000
[PASS] Test No: 1, Component: MuxAOut, Actual Value: 0xfffe, Expected Value: 0xfffe
[PASS] Test No: 1, Component: MuxBOut, Actual Value: 0xfffe, Expected Value: 0xfffe
[PASS] Test No: 1, Component: MuxCOut, Actual Value: 0x00fe, Expected Value: 0x00fe
[PASS] Test No: 1, Component: R2, Actual Value: 0x0000, Expected Value: 0x0000
[PASS] Test No: 1, Component: S3, Actual Value: 0x0000, Expected Value: 0x0000
[PASS] Test No: 2, Component: OutA, Actual Value: 0x7777, Expected Value: 0x7777
[PASS] Test No: 2, Component: OutB, Actual Value: 0x8887, Expected Value: 0x8887
[PASS] Test No: 2, Component: ALUOut, Actual Value: 0xfffe, Expected Value: 0xfffe
[PASS] Test No: 2, Component: Z, Actual Value: 0x0000, Expected Value: 0x0000
[PASS] Test No: 2, Component: C, Actual Value: 0x0000, Expected Value: 0x0000
[PASS] Test No: 2, Component: N, Actual Value: 0x0001, Expected Value: 0x0001
[PASS] Test No: 2, Component: O, Actual Value: 0x0000, Expected Value: 0x0000
[PASS] Test No: 2, Component: MuxAOut, Actual Value: 0xfffe, Expected Value: 0xfffe
[PASS] Test No: 2, Component: MuxBOut, Actual Value: 0xfffe, Expected Value: 0xfffe
[PASS] Test No: 2, Component: MuxCOut, Actual Value: 0x00fe, Expected Value: 0x00fe
[PASS] Test No: 2, Component: R2, Actual Value: 0xfffe, Expected Value: 0xfffe
[PASS] Test No: 2, Component: S3, Actual Value: 0xfffe, Expected Value: 0xfffe
[PASS] Test No: 2, Component: PC, Actual Value: 0xfffe, Expected Value: 0xfffe
[PASS] Test No: 3, Component: OutC, Actual Value: 0x1254, Expected Value: 0x1254
[PASS] Test No: 3, Component: Address, Actual Value: 0x0023, Expected Value: 0x0023
[PASS] Test No: 3, Component: Memout, Actual Value: 0x0015, Expected Value: 0x0015
[PASS] Test No: 3, Component: IROut, Actual Value: 0x0000, Expected Value: 0x0000
[PASS] Test No: 4, Component: OutC, Actual Value: 0x1254, Expected Value: 0x1254
[PASS] Test No: 4, Component: Address, Actual Value: 0x0023, Expected Value: 0x0023
[PASS] Test No: 4, Component: Memout, Actual Value: 0x0015, Expected Value: 0x0015
[PASS] Test No: 4, Component: IROut, Actual Value: 0x0015, Expected Value: 0x0015
ArithmeticLogicUnitSystem Simulation Finished
0 Test Failed
33 Test Passed
------------------------------------
